\select@language {dutch}
\contentsline {section}{\numberline {1}Introductie}{3}
\contentsline {section}{\numberline {2}Achtergrondinformatie}{4}
\contentsline {subsection}{\numberline {2.1}Het IDP systeem}{4}
\contentsline {subsection}{\numberline {2.2}FO(.) logica}{4}
\contentsline {subsection}{\numberline {2.3}Lineaire Tijd Calculus}{4}
\contentsline {subsection}{\numberline {2.4}Natuurlijke Taal Generatie}{5}
\contentsline {section}{\numberline {3}Overzicht van gerelateerd onderzoek}{5}
\contentsline {section}{\numberline {4}Probleemstelling}{8}
\contentsline {section}{\numberline {5}Werkplanning}{8}
