\relax 
\catcode `"\active 
\select@language{dutch}
\@writefile{toc}{\select@language{dutch}}
\@writefile{lof}{\select@language{dutch}}
\@writefile{lot}{\select@language{dutch}}
\citation{dtai}
\citation{howmanylanguages}
\citation{dtai}
\citation{de2014predicate}
\citation{sep-discourse-representation-theory}
\citation{trivino2013towards}
\@writefile{toc}{\contentsline {section}{\numberline {1}Introductie}{3}}
\citation{de2014predicate}
\citation{dtai}
\citation{de2014predicate}
\citation{bogaertssimulating}
\citation{pnueli1977temporal}
\@writefile{toc}{\contentsline {section}{\numberline {2}Achtergrondinformatie}{4}}
\@writefile{toc}{\contentsline {subsection}{\numberline {2.1}Het IDP systeem}{4}}
\@writefile{toc}{\contentsline {subsection}{\numberline {2.2}FO(.) logica}{4}}
\@writefile{toc}{\contentsline {subsection}{\numberline {2.3}Lineaire Tijd Calculus}{4}}
\citation{reiter2000building}
\citation{ramos2016role}
\citation{goldberg1994weather}
\citation{coch1998interactive}
\citation{reiter2003lessons}
\citation{hunter2012automatic}
\citation{projectreporter}
\citation{zadeh1996fuzzy}
\citation{trivino2013towards}
\citation{trivino2013towards}
\@writefile{toc}{\contentsline {subsection}{\numberline {2.4}Natuurlijke Taal Generatie}{5}}
\@writefile{toc}{\contentsline {section}{\numberline {3}Overzicht van gerelateerd onderzoek}{5}}
\citation{konstas2013global}
\citation{kamp2013discourse}
\citation{van1992presupposition}
\citation{copestake2005minimal}
\citation{alshawi1990resolving}
\citation{alshawi1991translation}
\citation{basilelogic}
\citation{basile2012developing}
\citation{santorini1990part}
\citation{phillips1993generation}
\citation{prologastrogen}
\citation{coppock2009translation}
\citation{lenat1995cyc}
\citation{flake2000structured}
\citation{ruf2001raven}
\citation{holt1999semantically}
\@writefile{toc}{\contentsline {section}{\numberline {4}Probleemstelling}{8}}
\@writefile{toc}{\contentsline {section}{\numberline {5}Werkplanning}{8}}
\bibstyle{ieeetr}
\bibdata{referenties}
\bibcite{dtai}{1}
\bibcite{howmanylanguages}{2}
\bibcite{de2014predicate}{3}
\bibcite{sep-discourse-representation-theory}{4}
\bibcite{trivino2013towards}{5}
\bibcite{bogaertssimulating}{6}
\bibcite{pnueli1977temporal}{7}
\bibcite{reiter2000building}{8}
\bibcite{ramos2016role}{9}
\bibcite{goldberg1994weather}{10}
\bibcite{coch1998interactive}{11}
\bibcite{reiter2003lessons}{12}
\bibcite{hunter2012automatic}{13}
\bibcite{projectreporter}{14}
\bibcite{zadeh1996fuzzy}{15}
\bibcite{konstas2013global}{16}
\bibcite{kamp2013discourse}{17}
\bibcite{van1992presupposition}{18}
\bibcite{copestake2005minimal}{19}
\bibcite{alshawi1990resolving}{20}
\bibcite{alshawi1991translation}{21}
\bibcite{basilelogic}{22}
\bibcite{basile2012developing}{23}
\bibcite{santorini1990part}{24}
\bibcite{phillips1993generation}{25}
\bibcite{prologastrogen}{26}
\bibcite{coppock2009translation}{27}
\bibcite{lenat1995cyc}{28}
\bibcite{flake2000structured}{29}
\bibcite{ruf2001raven}{30}
\bibcite{holt1999semantically}{31}
