\relax 
\providecommand\hyper@newdestlabel[2]{}
\citation{dtaiexamples}
\citation{thesisgitrepo}
\@writefile{lof}{\addvspace {10pt}}
\@writefile{lot}{\addvspace {10pt}}
\@writefile{toc}{\contentsline {appendix}{\chapternumberline {B}Gebruikte FO(.) specificaties}{75}{appendix.B}}
\newlabel{app:B}{{\M@TitleReference {B}{Gebruikte FO(.) specificaties}}{75}{Gebruikte FO(.) specificaties}{appendix.B}{}}
\@writefile{toc}{\contentsline {section}{\numberline {B.1}Relaties in een familie}{75}{section.B.1}}
\@writefile{lol}{\contentsline {lstlisting}{\numberline {B.1}Familierelaties FO(.) specificatie}{75}{lstlisting.B.1}}
\@writefile{lol}{\contentsline {lstlisting}{\numberline {B.2}Output van het vertaalsysteem voor de familierelaties}{77}{lstlisting.B.2}}
\@writefile{toc}{\contentsline {section}{\numberline {B.2}De Einstein puzzel}{80}{section.B.2}}
\@writefile{lol}{\contentsline {lstlisting}{\numberline {B.3}Einstein puzzel FO(.) specificatie met vertalingen}{80}{lstlisting.B.3}}
\@writefile{toc}{\contentsline {section}{\numberline {B.3}De torens van Hanoi}{83}{section.B.3}}
\@writefile{lol}{\contentsline {lstlisting}{\numberline {B.4}Torens van Hanoi FO(.) specificatie met vertalingen}{83}{lstlisting.B.4}}
\@writefile{toc}{\contentsline {section}{\numberline {B.4}Kortste pad tussen steden}{86}{section.B.4}}
\@writefile{lol}{\contentsline {lstlisting}{\numberline {B.5}Kortste padprobleem FO(.) specificatie met vertalingen}{86}{lstlisting.B.5}}
\@writefile{toc}{\contentsline {section}{\numberline {B.5}Logigram puzzel 6}{88}{section.B.5}}
\@writefile{lol}{\contentsline {lstlisting}{\numberline {B.6}Logigram puzzel FO(.) specificatie met vertalingen}{88}{lstlisting.B.6}}
\@setckpt{app-specificaties}{
\setcounter{page}{93}
\setcounter{equation}{0}
\setcounter{enumi}{0}
\setcounter{enumii}{0}
\setcounter{enumiii}{0}
\setcounter{enumiv}{0}
\setcounter{footnote}{0}
\setcounter{mpfootnote}{0}
\setcounter{@memmarkcntra}{0}
\setcounter{storedpagenumber}{1}
\setcounter{book}{0}
\setcounter{part}{0}
\setcounter{chapter}{2}
\setcounter{section}{5}
\setcounter{subsection}{0}
\setcounter{subsubsection}{0}
\setcounter{paragraph}{0}
\setcounter{subparagraph}{0}
\setcounter{@ppsavesec}{0}
\setcounter{@ppsaveapp}{0}
\setcounter{vslineno}{0}
\setcounter{poemline}{0}
\setcounter{modulo@vs}{0}
\setcounter{memfvsline}{0}
\setcounter{verse}{0}
\setcounter{chrsinstr}{0}
\setcounter{poem}{0}
\setcounter{newflo@tctr}{4}
\setcounter{@contsubnum}{0}
\setcounter{maxsecnumdepth}{2}
\setcounter{sidefootnote}{0}
\setcounter{pagenote}{0}
\setcounter{pagenoteshadow}{0}
\setcounter{memfbvline}{0}
\setcounter{bvlinectr}{0}
\setcounter{cp@cntr}{0}
\setcounter{ism@mctr}{0}
\setcounter{xsm@mctr}{0}
\setcounter{csm@mctr}{0}
\setcounter{ksm@mctr}{0}
\setcounter{xksm@mctr}{0}
\setcounter{cksm@mctr}{0}
\setcounter{msm@mctr}{0}
\setcounter{xmsm@mctr}{0}
\setcounter{cmsm@mctr}{0}
\setcounter{bsm@mctr}{0}
\setcounter{workm@mctr}{0}
\setcounter{sheetsequence}{103}
\setcounter{lastsheet}{116}
\setcounter{lastpage}{106}
\setcounter{figure}{0}
\setcounter{lofdepth}{1}
\setcounter{table}{0}
\setcounter{lotdepth}{1}
\setcounter{Item}{0}
\setcounter{Hfootnote}{0}
\setcounter{memhycontfloat}{0}
\setcounter{Hpagenote}{0}
\setcounter{bookmark@seq@number}{48}
\setcounter{AM@survey}{0}
\setcounter{@todonotes@numberoftodonotes}{0}
\setcounter{parentequation}{0}
\setcounter{float@type}{16}
\setcounter{algorithm}{0}
\setcounter{ALG@line}{8}
\setcounter{ALG@rem}{0}
\setcounter{ALG@nested}{0}
\setcounter{ALG@Lnr}{2}
\setcounter{ALG@blocknr}{10}
\setcounter{ALG@storecount}{0}
\setcounter{ALG@tmpcounter}{0}
\setcounter{ContinuedFloat}{0}
\setcounter{lstnumber}{112}
\setcounter{lips@count}{0}
\setcounter{section@level}{1}
\setcounter{lstlisting}{6}
}
