\relax 
\providecommand\hyper@newdestlabel[2]{}
\citation{de2014predicate}
\@writefile{lof}{\addvspace {10pt}}
\@writefile{lot}{\addvspace {10pt}}
\@writefile{toc}{\contentsline {chapter}{\chapternumberline {3}FO(.) syntax}{11}{chapter.3}}
\newlabel{hoofdstuk:fodot-syntax}{{\M@TitleReference {3}{FO(.) syntax}}{11}{FO(.) syntax}{chapter.3}{}}
\@writefile{toc}{\contentsline {section}{\numberline {3.1}Een FO(.) vocabularium}{11}{section.3.1}}
\@writefile{toc}{\contentsline {section}{\numberline {3.2}Een FO(.) formule}{11}{section.3.2}}
\@writefile{toc}{\contentsline {section}{\numberline {3.3}Een FO(.) definitie}{12}{section.3.3}}
\@writefile{toc}{\contentsline {section}{\numberline {3.4}Een FO(.) theorie}{12}{section.3.4}}
\@writefile{toc}{\contentsline {section}{\numberline {3.5}Een FO(.) structuur}{12}{section.3.5}}
\@setckpt{fodot-syntax}{
\setcounter{page}{14}
\setcounter{equation}{0}
\setcounter{enumi}{0}
\setcounter{enumii}{0}
\setcounter{enumiii}{0}
\setcounter{enumiv}{0}
\setcounter{footnote}{0}
\setcounter{mpfootnote}{0}
\setcounter{@memmarkcntra}{0}
\setcounter{storedpagenumber}{1}
\setcounter{book}{0}
\setcounter{part}{0}
\setcounter{chapter}{3}
\setcounter{section}{5}
\setcounter{subsection}{0}
\setcounter{subsubsection}{0}
\setcounter{paragraph}{0}
\setcounter{subparagraph}{0}
\setcounter{@ppsavesec}{0}
\setcounter{@ppsaveapp}{0}
\setcounter{vslineno}{0}
\setcounter{poemline}{0}
\setcounter{modulo@vs}{0}
\setcounter{memfvsline}{0}
\setcounter{verse}{0}
\setcounter{chrsinstr}{0}
\setcounter{poem}{0}
\setcounter{newflo@tctr}{4}
\setcounter{@contsubnum}{0}
\setcounter{maxsecnumdepth}{2}
\setcounter{sidefootnote}{0}
\setcounter{pagenote}{0}
\setcounter{pagenoteshadow}{0}
\setcounter{memfbvline}{0}
\setcounter{bvlinectr}{0}
\setcounter{cp@cntr}{0}
\setcounter{ism@mctr}{0}
\setcounter{xsm@mctr}{0}
\setcounter{csm@mctr}{0}
\setcounter{ksm@mctr}{0}
\setcounter{xksm@mctr}{0}
\setcounter{cksm@mctr}{0}
\setcounter{msm@mctr}{0}
\setcounter{xmsm@mctr}{0}
\setcounter{cmsm@mctr}{0}
\setcounter{bsm@mctr}{0}
\setcounter{workm@mctr}{0}
\setcounter{sheetsequence}{24}
\setcounter{lastsheet}{116}
\setcounter{lastpage}{106}
\setcounter{figure}{0}
\setcounter{lofdepth}{1}
\setcounter{table}{0}
\setcounter{lotdepth}{1}
\setcounter{Item}{0}
\setcounter{Hfootnote}{0}
\setcounter{memhycontfloat}{0}
\setcounter{Hpagenote}{0}
\setcounter{bookmark@seq@number}{18}
\setcounter{AM@survey}{0}
\setcounter{@todonotes@numberoftodonotes}{0}
\setcounter{parentequation}{0}
\setcounter{float@type}{16}
\setcounter{algorithm}{0}
\setcounter{ALG@line}{0}
\setcounter{ALG@rem}{0}
\setcounter{ALG@nested}{0}
\setcounter{ALG@Lnr}{2}
\setcounter{ALG@blocknr}{10}
\setcounter{ALG@storecount}{0}
\setcounter{ALG@tmpcounter}{0}
\setcounter{ContinuedFloat}{0}
\setcounter{lstnumber}{1}
\setcounter{lips@count}{0}
\setcounter{section@level}{1}
\setcounter{lstlisting}{0}
}
