\relax 
\providecommand\hyper@newdestlabel[2]{}
\citation{howmanylanguages}
\citation{de2014predicate}
\citation{dtai}
\@writefile{lof}{\addvspace {10pt}}
\@writefile{lot}{\addvspace {10pt}}
\@writefile{toc}{\contentsline {chapter}{\chapternumberline {1}Inleiding}{1}{chapter.1}}
\newlabel{inleiding}{{\M@TitleReference {1}{Inleiding}}{1}{Inleiding}{chapter.1}{}}
\@writefile{toc}{\contentsline {section}{\numberline {1.1}Introductie}{1}{section.1.1}}
\citation{reiter2000building}
\citation{sep-discourse-representation-theory}
\citation{trivino2013towards}
\@writefile{lof}{\contentsline {figure}{\numberline {1.1}{\ignorespaces De pijpleiding architectuur voor een NLG systeem\relax }}{3}{figure.caption.7}}
\providecommand*\caption@xref[2]{\@setref\relax\@undefined{#1}}
\newlabel{fig:nlg-diagram}{{\M@TitleReference {1.1}{De pijpleiding architectuur voor een NLG systeem\relax }}{3}{De pijpleiding architectuur voor een NLG systeem\relax }{figure.caption.7}{}}
\citation{dtai}
\citation{claes2017}
\@writefile{toc}{\contentsline {section}{\numberline {1.2}Probleemstelling}{4}{section.1.2}}
\@writefile{toc}{\contentsline {section}{\numberline {1.3}Structuur van de thesis}{4}{section.1.3}}
\@writefile{toc}{\contentsline {section}{\numberline {1.4}Bijkomende informatie}{4}{section.1.4}}
\@setckpt{inleiding}{
\setcounter{page}{5}
\setcounter{equation}{0}
\setcounter{enumi}{0}
\setcounter{enumii}{0}
\setcounter{enumiii}{0}
\setcounter{enumiv}{0}
\setcounter{footnote}{0}
\setcounter{mpfootnote}{0}
\setcounter{@memmarkcntra}{0}
\setcounter{storedpagenumber}{1}
\setcounter{book}{0}
\setcounter{part}{0}
\setcounter{chapter}{1}
\setcounter{section}{4}
\setcounter{subsection}{0}
\setcounter{subsubsection}{0}
\setcounter{paragraph}{0}
\setcounter{subparagraph}{0}
\setcounter{@ppsavesec}{0}
\setcounter{@ppsaveapp}{0}
\setcounter{vslineno}{0}
\setcounter{poemline}{0}
\setcounter{modulo@vs}{0}
\setcounter{memfvsline}{0}
\setcounter{verse}{0}
\setcounter{chrsinstr}{0}
\setcounter{poem}{0}
\setcounter{newflo@tctr}{4}
\setcounter{@contsubnum}{0}
\setcounter{maxsecnumdepth}{2}
\setcounter{sidefootnote}{0}
\setcounter{pagenote}{0}
\setcounter{pagenoteshadow}{0}
\setcounter{memfbvline}{0}
\setcounter{bvlinectr}{0}
\setcounter{cp@cntr}{0}
\setcounter{ism@mctr}{0}
\setcounter{xsm@mctr}{0}
\setcounter{csm@mctr}{0}
\setcounter{ksm@mctr}{0}
\setcounter{xksm@mctr}{0}
\setcounter{cksm@mctr}{0}
\setcounter{msm@mctr}{0}
\setcounter{xmsm@mctr}{0}
\setcounter{cmsm@mctr}{0}
\setcounter{bsm@mctr}{0}
\setcounter{workm@mctr}{0}
\setcounter{sheetsequence}{15}
\setcounter{lastsheet}{116}
\setcounter{lastpage}{106}
\setcounter{figure}{1}
\setcounter{lofdepth}{1}
\setcounter{table}{0}
\setcounter{lotdepth}{1}
\setcounter{Item}{0}
\setcounter{Hfootnote}{0}
\setcounter{memhycontfloat}{0}
\setcounter{Hpagenote}{0}
\setcounter{bookmark@seq@number}{9}
\setcounter{AM@survey}{0}
\setcounter{@todonotes@numberoftodonotes}{0}
\setcounter{parentequation}{0}
\setcounter{float@type}{16}
\setcounter{algorithm}{0}
\setcounter{ALG@line}{0}
\setcounter{ALG@rem}{0}
\setcounter{ALG@nested}{0}
\setcounter{ALG@Lnr}{2}
\setcounter{ALG@blocknr}{10}
\setcounter{ALG@storecount}{0}
\setcounter{ALG@tmpcounter}{0}
\setcounter{ContinuedFloat}{0}
\setcounter{lstnumber}{1}
\setcounter{lips@count}{0}
\setcounter{section@level}{1}
\setcounter{lstlisting}{0}
}
