\relax 
\providecommand\hyper@newdestlabel[2]{}
\citation{de2014predicate}
\citation{de2014predicate}
\citation{dtai}
\citation{de2014predicate}
\@writefile{lof}{\addvspace {10pt}}
\@writefile{lot}{\addvspace {10pt}}
\@writefile{toc}{\contentsline {chapter}{\chapternumberline {2}Literatuurstudie}{5}{chapter.2}}
\newlabel{hoofdstuk:literatuurstudie}{{\M@TitleReference {2}{Literatuurstudie}}{5}{Literatuurstudie}{chapter.2}{}}
\@writefile{toc}{\contentsline {section}{\numberline {2.1}Achtergrondinformatie}{5}{section.2.1}}
\@writefile{toc}{\contentsline {subsection}{\numberline {2.1.1}FO(.) logica}{5}{subsection.2.1.1}}
\@writefile{toc}{\contentsline {subsection}{\numberline {2.1.2}Het IDP systeem}{5}{subsection.2.1.2}}
\citation{bogaertssimulating}
\citation{pnueli1977temporal}
\citation{reiter2000building}
\@writefile{toc}{\contentsline {subsection}{\numberline {2.1.3}Lineaire Tijd Calculus}{6}{subsection.2.1.3}}
\@writefile{toc}{\contentsline {subsection}{\numberline {2.1.4}Natuurlijke Taal Generatie}{6}{subsection.2.1.4}}
\citation{ramos2015role}
\citation{goldberg1994weather}
\citation{coch1998interactive}
\citation{reiter2003lessons}
\citation{hunter2012automatic}
\citation{projectreporter}
\citation{zadeh1996fuzzy}
\citation{trivino2013towards}
\citation{trivino2013towards}
\citation{konstas2013global}
\citation{kamp2013discourse}
\citation{van1992presupposition}
\@writefile{toc}{\contentsline {section}{\numberline {2.2}Overzicht van gerelateerd onderzoek}{7}{section.2.2}}
\citation{copestake2005minimal}
\citation{alshawi1990resolving}
\citation{alshawi1991translation}
\citation{fuchs2008attempto}
\citation{fuchs2008attempto}
\citation{basilelogic}
\citation{basile2012developing}
\citation{santorini1990part}
\citation{debelder2014}
\citation{phillips1993generation}
\citation{prologastrogen}
\citation{coppock2009translation}
\citation{lenat1995cyc}
\citation{flake2000structured}
\citation{ruf2001raven}
\citation{holt1999semantically}
\@setckpt{literatuurstudie}{
\setcounter{page}{11}
\setcounter{equation}{0}
\setcounter{enumi}{0}
\setcounter{enumii}{0}
\setcounter{enumiii}{0}
\setcounter{enumiv}{0}
\setcounter{footnote}{0}
\setcounter{mpfootnote}{0}
\setcounter{@memmarkcntra}{0}
\setcounter{storedpagenumber}{1}
\setcounter{book}{0}
\setcounter{part}{0}
\setcounter{chapter}{2}
\setcounter{section}{2}
\setcounter{subsection}{0}
\setcounter{subsubsection}{0}
\setcounter{paragraph}{0}
\setcounter{subparagraph}{0}
\setcounter{@ppsavesec}{0}
\setcounter{@ppsaveapp}{0}
\setcounter{vslineno}{0}
\setcounter{poemline}{0}
\setcounter{modulo@vs}{0}
\setcounter{memfvsline}{0}
\setcounter{verse}{0}
\setcounter{chrsinstr}{0}
\setcounter{poem}{0}
\setcounter{newflo@tctr}{4}
\setcounter{@contsubnum}{0}
\setcounter{maxsecnumdepth}{2}
\setcounter{sidefootnote}{0}
\setcounter{pagenote}{0}
\setcounter{pagenoteshadow}{0}
\setcounter{memfbvline}{0}
\setcounter{bvlinectr}{0}
\setcounter{cp@cntr}{0}
\setcounter{ism@mctr}{0}
\setcounter{xsm@mctr}{0}
\setcounter{csm@mctr}{0}
\setcounter{ksm@mctr}{0}
\setcounter{xksm@mctr}{0}
\setcounter{cksm@mctr}{0}
\setcounter{msm@mctr}{0}
\setcounter{xmsm@mctr}{0}
\setcounter{cmsm@mctr}{0}
\setcounter{bsm@mctr}{0}
\setcounter{workm@mctr}{0}
\setcounter{sheetsequence}{21}
\setcounter{lastsheet}{116}
\setcounter{lastpage}{106}
\setcounter{figure}{0}
\setcounter{lofdepth}{1}
\setcounter{table}{0}
\setcounter{lotdepth}{1}
\setcounter{Item}{0}
\setcounter{Hfootnote}{0}
\setcounter{memhycontfloat}{0}
\setcounter{Hpagenote}{0}
\setcounter{bookmark@seq@number}{12}
\setcounter{AM@survey}{0}
\setcounter{@todonotes@numberoftodonotes}{0}
\setcounter{parentequation}{0}
\setcounter{float@type}{16}
\setcounter{algorithm}{0}
\setcounter{ALG@line}{0}
\setcounter{ALG@rem}{0}
\setcounter{ALG@nested}{0}
\setcounter{ALG@Lnr}{2}
\setcounter{ALG@blocknr}{10}
\setcounter{ALG@storecount}{0}
\setcounter{ALG@tmpcounter}{0}
\setcounter{ContinuedFloat}{0}
\setcounter{lstnumber}{1}
\setcounter{lips@count}{0}
\setcounter{section@level}{1}
\setcounter{lstlisting}{0}
}
