\select@language {dutch}
\select@language {dutch}
\select@language {dutch}
\select@language {dutch}
\select@language {dutch}
\select@language {dutch}
\select@language {dutch}
\addvspace {10pt}
\addvspace {10pt}
\addvspace {10pt}
\addvspace {10pt}
\contentsline {figure}{\numberline {1.1}{\ignorespaces De pijpleiding architectuur voor een NLG systeem\relax }}{3}{figure.caption.7}
\addvspace {10pt}
\addvspace {10pt}
\addvspace {10pt}
\contentsline {figure}{\numberline {4.1}{\ignorespaces Algoritmische beschrijving van het vertaalsysteem.\relax }}{21}{figure.caption.8}
\addvspace {10pt}
\contentsline {figure}{\numberline {5.1}{\ignorespaces Beknopte beschrijving van de FO(.) grammatica.\relax }}{26}{figure.5.1}
\addvspace {10pt}
\addvspace {10pt}
\addvspace {10pt}
\addvspace {10pt}
\addvspace {10pt}
\addvspace {10pt}
\addvspace {10pt}
\select@language {dutch}
\select@language {dutch}
\select@language {dutch}
\select@language {dutch}
\select@language {dutch}
\select@language {dutch}
\select@language {dutch}
\select@language {dutch}
\select@language {dutch}
\select@language {dutch}
