\relax 
\providecommand\hyper@newdestlabel[2]{}
\providecommand*{\memsetcounter}[2]{}
\catcode `"\active 
\providecommand\HyperFirstAtBeginDocument{\AtBeginDocument}
\HyperFirstAtBeginDocument{\ifx\hyper@anchor\@undefined
\global\let\oldcontentsline\contentsline
\gdef\contentsline#1#2#3#4{\oldcontentsline{#1}{#2}{#3}}
\global\let\oldnewlabel\newlabel
\gdef\newlabel#1#2{\newlabelxx{#1}#2}
\gdef\newlabelxx#1#2#3#4#5#6{\oldnewlabel{#1}{{#2}{#3}}}
\AtEndDocument{\ifx\hyper@anchor\@undefined
\let\contentsline\oldcontentsline
\let\newlabel\oldnewlabel
\fi}
\fi}
\global\let\hyper@last\relax 
\gdef\HyperFirstAtBeginDocument#1{#1}
\providecommand\HyField@AuxAddToFields[1]{}
\providecommand\HyField@AuxAddToCoFields[2]{}
\select@language{dutch}
\@writefile{toc}{\select@language{dutch}}
\@writefile{lof}{\select@language{dutch}}
\@writefile{lot}{\select@language{dutch}}
\select@language{dutch}
\@writefile{toc}{\select@language{dutch}}
\@writefile{lof}{\select@language{dutch}}
\@writefile{lot}{\select@language{dutch}}
\select@language{dutch}
\@writefile{toc}{\select@language{dutch}}
\@writefile{lof}{\select@language{dutch}}
\@writefile{lot}{\select@language{dutch}}
\select@language{dutch}
\@writefile{toc}{\select@language{dutch}}
\@writefile{lof}{\select@language{dutch}}
\@writefile{lot}{\select@language{dutch}}
\select@language{dutch}
\@writefile{toc}{\select@language{dutch}}
\@writefile{lof}{\select@language{dutch}}
\@writefile{lot}{\select@language{dutch}}
\select@language{dutch}
\@writefile{toc}{\select@language{dutch}}
\@writefile{lof}{\select@language{dutch}}
\@writefile{lot}{\select@language{dutch}}
\select@language{dutch}
\@writefile{toc}{\select@language{dutch}}
\@writefile{lof}{\select@language{dutch}}
\@writefile{lot}{\select@language{dutch}}
\@writefile{lof}{\addvspace {10pt}}
\@writefile{lot}{\addvspace {10pt}}
\@writefile{toc}{\contentsline {chapter}{Voorwoord}{i}{chapter*.1}}
\@writefile{lof}{\addvspace {10pt}}
\@writefile{lot}{\addvspace {10pt}}
\@writefile{toc}{\contentsline {chapter}{Samenvatting}{iv}{chapter*.2}}
\@writefile{toc}{\contentsline {chapter}{L"yst van figuren}{v}{section*.3}}
\@writefile{lof}{\addvspace {10pt}}
\@writefile{lot}{\addvspace {10pt}}
\@writefile{toc}{\contentsline {chapter}{Lijst van afkortingen en symbolen}{vi}{chapter*.4}}
\@input{inleiding.aux}
\@input{literatuurstudie.aux}
\@input{fodot-syntax.aux}
\@input{overzicht-vertaalsysteem.aux}
\@input{vertaalregels-compleetheid.aux}
\@input{resultaten.aux}
\@input{uitbreidingen.aux}
\@input{besluit.aux}
\@input{app-code.aux}
\@input{app-specificaties.aux}
\@input{app-paper.aux}
\@input{app-poster.aux}
\bibstyle{abbrv}
\bibdata{referenties}
\bibcite{alshawi1990resolving}{1}
\bibcite{alshawi1991translation}{2}
\bibcite{basilelogic}{3}
\bibcite{basile2012developing}{4}
\bibcite{bogaertssimulating}{5}
\bibcite{claes2017}{6}
\bibcite{coch1998interactive}{7}
\bibcite{projectreporter}{8}
\bibcite{copestake2005minimal}{9}
\bibcite{coppock2009translation}{10}
\bibcite{prologastrogen}{11}
\bibcite{debelder2014}{12}
\bibcite{de2014predicate}{13}
\@writefile{toc}{\contentsline {chapter}{Bibliografie}{103}{section*.26}}
\bibcite{flake2000structured}{14}
\bibcite{fuchs2008attempto}{15}
\bibcite{sep-discourse-representation-theory}{16}
\bibcite{goldberg1994weather}{17}
\bibcite{holt1999semantically}{18}
\bibcite{hunter2012automatic}{19}
\bibcite{kamp2013discourse}{20}
\bibcite{konstas2013global}{21}
\bibcite{lenat1995cyc}{22}
\bibcite{thesisgitrepo}{23}
\bibcite{phillips1993generation}{24}
\bibcite{pnueli1977temporal}{25}
\bibcite{ramos2015role}{26}
\bibcite{reiter2000building}{27}
\bibcite{reiter2003lessons}{28}
\bibcite{dtai}{29}
\bibcite{dtaiexamples}{30}
\bibcite{howmanylanguages}{31}
\bibcite{ruf2001raven}{32}
\bibcite{santorini1990part}{33}
\bibcite{trivino2013towards}{34}
\bibcite{van1992presupposition}{35}
\bibcite{zadeh1996fuzzy}{36}
\select@language{dutch}
\@writefile{toc}{\select@language{dutch}}
\@writefile{lof}{\select@language{dutch}}
\@writefile{lot}{\select@language{dutch}}
\select@language{dutch}
\@writefile{toc}{\select@language{dutch}}
\@writefile{lof}{\select@language{dutch}}
\@writefile{lot}{\select@language{dutch}}
\select@language{dutch}
\@writefile{toc}{\select@language{dutch}}
\@writefile{lof}{\select@language{dutch}}
\@writefile{lot}{\select@language{dutch}}
\select@language{dutch}
\@writefile{toc}{\select@language{dutch}}
\@writefile{lof}{\select@language{dutch}}
\@writefile{lot}{\select@language{dutch}}
\select@language{dutch}
\@writefile{toc}{\select@language{dutch}}
\@writefile{lof}{\select@language{dutch}}
\@writefile{lot}{\select@language{dutch}}
\select@language{dutch}
\@writefile{toc}{\select@language{dutch}}
\@writefile{lof}{\select@language{dutch}}
\@writefile{lot}{\select@language{dutch}}
\select@language{dutch}
\@writefile{toc}{\select@language{dutch}}
\@writefile{lof}{\select@language{dutch}}
\@writefile{lot}{\select@language{dutch}}
\select@language{dutch}
\@writefile{toc}{\select@language{dutch}}
\@writefile{lof}{\select@language{dutch}}
\@writefile{lot}{\select@language{dutch}}
\select@language{dutch}
\@writefile{toc}{\select@language{dutch}}
\@writefile{lof}{\select@language{dutch}}
\@writefile{lot}{\select@language{dutch}}
\select@language{dutch}
\@writefile{toc}{\select@language{dutch}}
\@writefile{lof}{\select@language{dutch}}
\@writefile{lot}{\select@language{dutch}}
\memsetcounter{lastsheet}{116}
\memsetcounter{lastpage}{106}
