\relax 
\providecommand\hyper@newdestlabel[2]{}
\citation{de2014predicate}
\@writefile{lof}{\addvspace {10pt}}
\@writefile{lot}{\addvspace {10pt}}
\@writefile{toc}{\contentsline {chapter}{\chapternumberline {4}Overzicht van het vertaalsysteem}{15}{chapter.4}}
\newlabel{hoofdstuk:overzicht}{{\M@TitleReference {4}{Overzicht van het vertaalsysteem}}{15}{Overzicht van het vertaalsysteem}{chapter.4}{}}
\@writefile{toc}{\contentsline {section}{\numberline {4.1}Parsen van de FO(.) specificatie}{15}{section.4.1}}
\newlabel{sec:parsing}{{\M@TitleReference {4.1}{Parsen van de FO(.) specificatie}}{15}{Parsen van de FO(.) specificatie}{section.4.1}{}}
\@writefile{toc}{\contentsline {section}{\numberline {4.2}Annotaties in het vocabularium}{16}{section.4.2}}
\newlabel{sec:voc_annotations}{{\M@TitleReference {4.2}{Annotaties in het vocabularium}}{16}{Annotaties in het vocabularium}{section.4.2}{}}
\@writefile{toc}{\contentsline {section}{\numberline {4.3}Typeinferentie}{19}{section.4.3}}
\newlabel{sec:inference}{{\M@TitleReference {4.3}{Typeinferentie}}{19}{Typeinferentie}{section.4.3}{}}
\@writefile{toc}{\contentsline {section}{\numberline {4.4}Vertalen volgens AST, compositie en contextpropagatie}{20}{section.4.4}}
\newlabel{sec:hollistic-view}{{\M@TitleReference {4.4}{Vertalen volgens AST, compositie en contextpropagatie}}{20}{Vertalen volgens AST, compositie en contextpropagatie}{section.4.4}{}}
\@writefile{lof}{\contentsline {figure}{\numberline {4.1}{\ignorespaces Algoritmische beschrijving van het vertaalsysteem.\relax }}{21}{figure.caption.8}}
\newlabel{fig:algorithmic-description}{{\M@TitleReference {4.1}{Algoritmische beschrijving van het vertaalsysteem.\relax }}{21}{Algoritmische beschrijving van het vertaalsysteem.\relax }{figure.caption.8}{}}
\@writefile{toc}{\contentsline {section}{\numberline {4.5}Besluit van dit hoofdstuk}{24}{section.4.5}}
\@setckpt{overzicht-vertaalsysteem}{
\setcounter{page}{25}
\setcounter{equation}{0}
\setcounter{enumi}{0}
\setcounter{enumii}{0}
\setcounter{enumiii}{0}
\setcounter{enumiv}{0}
\setcounter{footnote}{0}
\setcounter{mpfootnote}{0}
\setcounter{@memmarkcntra}{0}
\setcounter{storedpagenumber}{1}
\setcounter{book}{0}
\setcounter{part}{0}
\setcounter{chapter}{4}
\setcounter{section}{5}
\setcounter{subsection}{0}
\setcounter{subsubsection}{0}
\setcounter{paragraph}{0}
\setcounter{subparagraph}{0}
\setcounter{@ppsavesec}{0}
\setcounter{@ppsaveapp}{0}
\setcounter{vslineno}{0}
\setcounter{poemline}{0}
\setcounter{modulo@vs}{0}
\setcounter{memfvsline}{0}
\setcounter{verse}{0}
\setcounter{chrsinstr}{0}
\setcounter{poem}{0}
\setcounter{newflo@tctr}{4}
\setcounter{@contsubnum}{0}
\setcounter{maxsecnumdepth}{2}
\setcounter{sidefootnote}{0}
\setcounter{pagenote}{0}
\setcounter{pagenoteshadow}{0}
\setcounter{memfbvline}{0}
\setcounter{bvlinectr}{0}
\setcounter{cp@cntr}{0}
\setcounter{ism@mctr}{0}
\setcounter{xsm@mctr}{0}
\setcounter{csm@mctr}{0}
\setcounter{ksm@mctr}{0}
\setcounter{xksm@mctr}{0}
\setcounter{cksm@mctr}{0}
\setcounter{msm@mctr}{0}
\setcounter{xmsm@mctr}{0}
\setcounter{cmsm@mctr}{0}
\setcounter{bsm@mctr}{0}
\setcounter{workm@mctr}{0}
\setcounter{sheetsequence}{35}
\setcounter{lastsheet}{116}
\setcounter{lastpage}{106}
\setcounter{figure}{1}
\setcounter{lofdepth}{1}
\setcounter{table}{0}
\setcounter{lotdepth}{1}
\setcounter{Item}{0}
\setcounter{Hfootnote}{0}
\setcounter{memhycontfloat}{0}
\setcounter{Hpagenote}{0}
\setcounter{bookmark@seq@number}{24}
\setcounter{AM@survey}{0}
\setcounter{@todonotes@numberoftodonotes}{0}
\setcounter{parentequation}{0}
\setcounter{float@type}{16}
\setcounter{algorithm}{0}
\setcounter{ALG@line}{8}
\setcounter{ALG@rem}{0}
\setcounter{ALG@nested}{0}
\setcounter{ALG@Lnr}{2}
\setcounter{ALG@blocknr}{10}
\setcounter{ALG@storecount}{0}
\setcounter{ALG@tmpcounter}{0}
\setcounter{ContinuedFloat}{0}
\setcounter{lstnumber}{1}
\setcounter{lips@count}{0}
\setcounter{section@level}{1}
\setcounter{lstlisting}{0}
}
