\relax 
\providecommand\hyper@newdestlabel[2]{}
\citation{dtaiexamples}
\@writefile{lof}{\addvspace {10pt}}
\@writefile{lot}{\addvspace {10pt}}
\@writefile{toc}{\contentsline {chapter}{\chapternumberline {6}Resultaten}{49}{chapter.6}}
\newlabel{hoofdstuk:resultaten}{{\M@TitleReference {6}{Resultaten}}{49}{Resultaten}{chapter.6}{}}
\@writefile{toc}{\contentsline {section}{\numberline {6.1}Relaties in een familie}{49}{section.6.1}}
\@writefile{lol}{\contentsline {lstlisting}{\numberline {6.1}Het geannoteerde familie vocabularium}{49}{lstlisting.6.1}}
\@writefile{lol}{\contentsline {lstlisting}{\numberline {6.2}De vertaalde familie theorie}{50}{lstlisting.6.2}}
\@writefile{lol}{\contentsline {lstlisting}{\numberline {6.3}De vertaalde familie structuur}{51}{lstlisting.6.3}}
\@writefile{toc}{\contentsline {section}{\numberline {6.2}De Einstein Puzzel}{52}{section.6.2}}
\newlabel{sec:einstein}{{\M@TitleReference {6.2}{De Einstein Puzzel}}{52}{De Einstein Puzzel}{section.6.2}{}}
\@writefile{lol}{\contentsline {lstlisting}{\numberline {6.4}Het vocabularium voor de Einstein puzzel}{52}{lstlisting.6.4}}
\@writefile{lol}{\contentsline {lstlisting}{\numberline {6.5}De vertaalde Einstein puzzel theorie}{53}{lstlisting.6.5}}
\@writefile{lol}{\contentsline {lstlisting}{\numberline {6.6}De structuur voor de Einstein puzzel}{56}{lstlisting.6.6}}
\@writefile{toc}{\contentsline {section}{\numberline {6.3}De Torens van Hanoi}{56}{section.6.3}}
\newlabel{sec:hanoi}{{\M@TitleReference {6.3}{De Torens van Hanoi}}{56}{De Torens van Hanoi}{section.6.3}{}}
\@writefile{lol}{\contentsline {lstlisting}{\numberline {6.7}het vocabularium voor de Hanoi puzzel}{56}{lstlisting.6.7}}
\@writefile{lol}{\contentsline {lstlisting}{\numberline {6.8}De vertaalde Hanoi puzzel}{58}{lstlisting.6.8}}
\@writefile{toc}{\contentsline {section}{\numberline {6.4}Besluit van dit hoofdstuk}{60}{section.6.4}}
\@setckpt{resultaten}{
\setcounter{page}{61}
\setcounter{equation}{0}
\setcounter{enumi}{0}
\setcounter{enumii}{0}
\setcounter{enumiii}{0}
\setcounter{enumiv}{0}
\setcounter{footnote}{0}
\setcounter{mpfootnote}{0}
\setcounter{@memmarkcntra}{0}
\setcounter{storedpagenumber}{1}
\setcounter{book}{0}
\setcounter{part}{0}
\setcounter{chapter}{6}
\setcounter{section}{4}
\setcounter{subsection}{0}
\setcounter{subsubsection}{0}
\setcounter{paragraph}{0}
\setcounter{subparagraph}{0}
\setcounter{@ppsavesec}{0}
\setcounter{@ppsaveapp}{0}
\setcounter{vslineno}{0}
\setcounter{poemline}{0}
\setcounter{modulo@vs}{0}
\setcounter{memfvsline}{0}
\setcounter{verse}{0}
\setcounter{chrsinstr}{0}
\setcounter{poem}{0}
\setcounter{newflo@tctr}{4}
\setcounter{@contsubnum}{0}
\setcounter{maxsecnumdepth}{2}
\setcounter{sidefootnote}{0}
\setcounter{pagenote}{0}
\setcounter{pagenoteshadow}{0}
\setcounter{memfbvline}{0}
\setcounter{bvlinectr}{0}
\setcounter{cp@cntr}{0}
\setcounter{ism@mctr}{0}
\setcounter{xsm@mctr}{0}
\setcounter{csm@mctr}{0}
\setcounter{ksm@mctr}{0}
\setcounter{xksm@mctr}{0}
\setcounter{cksm@mctr}{0}
\setcounter{msm@mctr}{0}
\setcounter{xmsm@mctr}{0}
\setcounter{cmsm@mctr}{0}
\setcounter{bsm@mctr}{0}
\setcounter{workm@mctr}{0}
\setcounter{sheetsequence}{71}
\setcounter{lastsheet}{116}
\setcounter{lastpage}{106}
\setcounter{figure}{0}
\setcounter{lofdepth}{1}
\setcounter{table}{0}
\setcounter{lotdepth}{1}
\setcounter{Item}{0}
\setcounter{Hfootnote}{0}
\setcounter{memhycontfloat}{0}
\setcounter{Hpagenote}{0}
\setcounter{bookmark@seq@number}{34}
\setcounter{AM@survey}{0}
\setcounter{@todonotes@numberoftodonotes}{0}
\setcounter{parentequation}{0}
\setcounter{float@type}{16}
\setcounter{algorithm}{0}
\setcounter{ALG@line}{8}
\setcounter{ALG@rem}{0}
\setcounter{ALG@nested}{0}
\setcounter{ALG@Lnr}{2}
\setcounter{ALG@blocknr}{10}
\setcounter{ALG@storecount}{0}
\setcounter{ALG@tmpcounter}{0}
\setcounter{ContinuedFloat}{0}
\setcounter{lstnumber}{34}
\setcounter{lips@count}{0}
\setcounter{section@level}{1}
\setcounter{lstlisting}{8}
}
