\relax 
\citation{de2014predicate}
\citation{de2014predicate}
\citation{lieven2017specifications}
\citation{trivino2013towards}
\citation{kamp2013discourse}
\citation{goldberg1994weather}
\citation{coch1998interactive}
\citation{hunter2012automatic}
\citation{reiter2000building}
\citation{ramos2015role}
\citation{trivino2013towards}
\@writefile{toc}{\contentsline {section}{\numberline {I}Introduction}{1}}
\@writefile{toc}{\contentsline {section}{\numberline {II}Related work}{1}}
\citation{kamp2013discourse}
\citation{van1992presupposition}
\citation{copestake2005minimal}
\citation{basile2012developing}
\citation{debelder2014}
\citation{phillips1993generation}
\citation{prologastrogen}
\citation{coppock2009translation}
\citation{lenat1995cyc}
\citation{holt1999semantically}
\@writefile{toc}{\contentsline {section}{\numberline {III}Overview of the system}{2}}
\@writefile{lof}{\contentsline {figure}{\numberline {1}{\ignorespaces Algorithmic description of the translation system.}}{3}}
\newlabel{fig:algorithmic-description}{{1}{3}}
\@writefile{toc}{\contentsline {subsection}{\numberline {\unhbox \voidb@x \hbox {III-A}}An annotated vocabularium}{3}}
\@writefile{toc}{\contentsline {subsection}{\numberline {\unhbox \voidb@x \hbox {III-B}}Describing the context of an expression}{3}}
\citation{lieven2017specifications}
\@writefile{toc}{\contentsline {subsection}{\numberline {\unhbox \voidb@x \hbox {III-C}}A variable/constant information table}{4}}
\@writefile{toc}{\contentsline {section}{\numberline {IV}formal translation rules}{4}}
\@writefile{toc}{\contentsline {subsection}{\numberline {\unhbox \voidb@x \hbox {IV-A}}an $=$ or $\neg =$ expression}{4}}
\@writefile{toc}{\contentsline {subsection}{\numberline {\unhbox \voidb@x \hbox {IV-B}}a $\forall $ quantification}{4}}
\citation{thesisgitrepo}
\citation{einsteinpuzzle}
\citation{hanoipuzzle}
\@writefile{toc}{\contentsline {subsection}{\numberline {\unhbox \voidb@x \hbox {IV-C}}a $\Rightarrow $ expression}{5}}
\@writefile{toc}{\contentsline {subsection}{\numberline {\unhbox \voidb@x \hbox {IV-D}}a $\leftarrow $ definition rule}{5}}
\@writefile{toc}{\contentsline {section}{\numberline {V}results}{5}}
\bibstyle{IEEEtran}
\bibdata{referenties}
\bibcite{de2014predicate}{1}
\bibcite{lieven2017specifications}{2}
\bibcite{trivino2013towards}{3}
\bibcite{kamp2013discourse}{4}
\bibcite{goldberg1994weather}{5}
\bibcite{coch1998interactive}{6}
\bibcite{hunter2012automatic}{7}
\bibcite{reiter2000building}{8}
\bibcite{ramos2015role}{9}
\bibcite{van1992presupposition}{10}
\bibcite{copestake2005minimal}{11}
\bibcite{basile2012developing}{12}
\bibcite{debelder2014}{13}
\bibcite{phillips1993generation}{14}
\bibcite{prologastrogen}{15}
\bibcite{coppock2009translation}{16}
\bibcite{lenat1995cyc}{17}
\bibcite{holt1999semantically}{18}
\bibcite{thesisgitrepo}{19}
\bibcite{einsteinpuzzle}{20}
\bibcite{hanoipuzzle}{21}
\@writefile{toc}{\contentsline {section}{\numberline {VI}Conclusion}{6}}
\@writefile{toc}{\contentsline {section}{References}{6}}
