\relax 
\providecommand\hyper@newdestlabel[2]{}
\citation{bogaertssimulating}
\@writefile{lof}{\addvspace {10pt}}
\@writefile{lot}{\addvspace {10pt}}
\@writefile{toc}{\contentsline {chapter}{\chapternumberline {7}Uitbreidingen op het vertaalsysteem}{61}{chapter.7}}
\newlabel{hoofdstuk:uitbreidingen}{{\M@TitleReference {7}{Uitbreidingen op het vertaalsysteem}}{61}{Uitbreidingen op het vertaalsysteem}{chapter.7}{}}
\@writefile{toc}{\contentsline {section}{\numberline {7.1}Vertalen van LTC theorie\"en}{61}{section.7.1}}
\newlabel{sec:extension_LTC}{{\M@TitleReference {7.1}{Vertalen van LTC theorie\"en}}{61}{Vertalen van LTC theorie\"en}{section.7.1}{}}
\@writefile{lol}{\contentsline {lstlisting}{\numberline {7.1}Een simpele LTC specificatie met ge\"annoteerd vocabularium}{61}{lstlisting.7.1}}
\@writefile{toc}{\contentsline {section}{\numberline {7.2}Logische transformaties en standaardvorm}{63}{section.7.2}}
\newlabel{sec:extension_transformationdefaultform}{{\M@TitleReference {7.2}{Logische transformaties en standaardvorm}}{63}{Logische transformaties en standaardvorm}{section.7.2}{}}
\@writefile{toc}{\contentsline {section}{\numberline {7.3}Besluit van dit hoofdstuk}{65}{section.7.3}}
\@setckpt{uitbreidingen}{
\setcounter{page}{66}
\setcounter{equation}{0}
\setcounter{enumi}{0}
\setcounter{enumii}{0}
\setcounter{enumiii}{0}
\setcounter{enumiv}{0}
\setcounter{footnote}{0}
\setcounter{mpfootnote}{0}
\setcounter{@memmarkcntra}{0}
\setcounter{storedpagenumber}{1}
\setcounter{book}{0}
\setcounter{part}{0}
\setcounter{chapter}{7}
\setcounter{section}{3}
\setcounter{subsection}{0}
\setcounter{subsubsection}{0}
\setcounter{paragraph}{0}
\setcounter{subparagraph}{0}
\setcounter{@ppsavesec}{0}
\setcounter{@ppsaveapp}{0}
\setcounter{vslineno}{0}
\setcounter{poemline}{0}
\setcounter{modulo@vs}{0}
\setcounter{memfvsline}{0}
\setcounter{verse}{0}
\setcounter{chrsinstr}{0}
\setcounter{poem}{0}
\setcounter{newflo@tctr}{4}
\setcounter{@contsubnum}{0}
\setcounter{maxsecnumdepth}{2}
\setcounter{sidefootnote}{0}
\setcounter{pagenote}{0}
\setcounter{pagenoteshadow}{0}
\setcounter{memfbvline}{0}
\setcounter{bvlinectr}{0}
\setcounter{cp@cntr}{0}
\setcounter{ism@mctr}{0}
\setcounter{xsm@mctr}{0}
\setcounter{csm@mctr}{0}
\setcounter{ksm@mctr}{0}
\setcounter{xksm@mctr}{0}
\setcounter{cksm@mctr}{0}
\setcounter{msm@mctr}{0}
\setcounter{xmsm@mctr}{0}
\setcounter{cmsm@mctr}{0}
\setcounter{bsm@mctr}{0}
\setcounter{workm@mctr}{0}
\setcounter{sheetsequence}{76}
\setcounter{lastsheet}{116}
\setcounter{lastpage}{106}
\setcounter{figure}{0}
\setcounter{lofdepth}{1}
\setcounter{table}{0}
\setcounter{lotdepth}{1}
\setcounter{Item}{0}
\setcounter{Hfootnote}{0}
\setcounter{memhycontfloat}{0}
\setcounter{Hpagenote}{0}
\setcounter{bookmark@seq@number}{38}
\setcounter{AM@survey}{0}
\setcounter{@todonotes@numberoftodonotes}{0}
\setcounter{parentequation}{0}
\setcounter{float@type}{16}
\setcounter{algorithm}{0}
\setcounter{ALG@line}{8}
\setcounter{ALG@rem}{0}
\setcounter{ALG@nested}{0}
\setcounter{ALG@Lnr}{2}
\setcounter{ALG@blocknr}{10}
\setcounter{ALG@storecount}{0}
\setcounter{ALG@tmpcounter}{0}
\setcounter{ContinuedFloat}{0}
\setcounter{lstnumber}{24}
\setcounter{lips@count}{0}
\setcounter{section@level}{1}
\setcounter{lstlisting}{1}
}
