\relax 
\providecommand\hyper@newdestlabel[2]{}
\@writefile{lof}{\addvspace {10pt}}
\@writefile{lot}{\addvspace {10pt}}
\@writefile{toc}{\contentsline {chapter}{\chapternumberline {5}Vertaalregels en Compleetheid}{25}{chapter.5}}
\newlabel{hoofdstuk:vertaalregels-compleetheid}{{\M@TitleReference {5}{Vertaalregels en Compleetheid}}{25}{Vertaalregels en Compleetheid}{chapter.5}{}}
\@writefile{toc}{\contentsline {section}{\numberline {5.1}Formele beschrijving van vertaalregels}{25}{section.5.1}}
\newlabel{sec:defining_formalism}{{\M@TitleReference {5.1}{Formele beschrijving van vertaalregels}}{25}{Formele beschrijving van vertaalregels}{section.5.1}{}}
\newlabel{fig:idp-grammar-short}{{\M@TitleReference {5.1}{Formele beschrijving van vertaalregels}}{25}{Formele beschrijving van vertaalregels}{section.5.1}{}}
\@writefile{lof}{\contentsline {figure}{\numberline {5.1}{\ignorespaces Beknopte beschrijving van de FO(.) grammatica.\relax }}{26}{figure.5.1}}
\@writefile{toc}{\contentsline {section}{\numberline {5.2}Overzicht vertaalregels}{28}{section.5.2}}
\newlabel{sec:defining_rules}{{\M@TitleReference {5.2}{Overzicht vertaalregels}}{28}{Overzicht vertaalregels}{section.5.2}{}}
\@writefile{toc}{\contentsline {subsection}{\numberline {5.2.1}FO(.) formules in FO(.) theorie}{28}{subsection.5.2.1}}
\@writefile{toc}{\contentsline {paragraph}{Een logische unaire operator}{28}{section*.9}}
\newlabel{sec:forall-exists}{{\M@TitleReference {5.2.1}{Een $\forall $ of $\exists $ kwantor}}{30}{Een $\forall $ of $\exists $ kwantor}{section*.10}{}}
\@writefile{toc}{\contentsline {paragraph}{Een $\forall $ of $\exists $ kwantor}{30}{section*.10}}
\@writefile{toc}{\contentsline {paragraph}{Een $\exists =I$, $\exists \geq X$ of $\exists \leq X$ kwantor}{31}{section*.11}}
\@writefile{toc}{\contentsline {paragraph}{Een binaire logische operator}{32}{section*.12}}
\@writefile{toc}{\contentsline {paragraph}{Een unaire aritmetische operator}{33}{section*.13}}
\newlabel{sec:formal-equality}{{\M@TitleReference {5.2.1}{Een $=$-of $\not =$-expressie}}{34}{Een $=$-of $\not =$-expressie}{section*.14}{}}
\@writefile{toc}{\contentsline {paragraph}{Een $=$-of $\not =$-expressie}{34}{section*.14}}
\@writefile{toc}{\contentsline {paragraph}{Een vergelijkingsoperator}{37}{section*.15}}
\@writefile{toc}{\contentsline {paragraph}{Een binaire aritmetische operator}{37}{section*.16}}
\@writefile{toc}{\contentsline {paragraph}{Een term}{38}{section*.17}}
\@writefile{toc}{\contentsline {paragraph}{Een definitie blok van $\leftarrow $ regels}{43}{section*.18}}
\@writefile{toc}{\contentsline {paragraph}{Een aggregaatfunctie}{44}{section*.19}}
\@writefile{toc}{\contentsline {paragraph}{Een hele FO(.) theorie}{45}{section*.20}}
\@writefile{toc}{\contentsline {subsection}{\numberline {5.2.2}FO(.) structuur}{45}{subsection.5.2.2}}
\@writefile{toc}{\contentsline {paragraph}{Bereik van een type}{45}{section*.21}}
\@writefile{toc}{\contentsline {paragraph}{Een beschrijving van domeinelementen}{46}{section*.22}}
\@writefile{toc}{\contentsline {paragraph}{Een 'driewaardige' interpretatie}{47}{section*.23}}
\@writefile{toc}{\contentsline {paragraph}{Een volledige FO(.) structuur}{47}{section*.24}}
\citation{de2014predicate}
\@writefile{toc}{\contentsline {section}{\numberline {5.3}Compleetheidsargument}{48}{section.5.3}}
\newlabel{sec:completeness}{{\M@TitleReference {5.3}{Compleetheidsargument}}{48}{Compleetheidsargument}{section.5.3}{}}
\@writefile{toc}{\contentsline {section}{\numberline {5.4}Besluit van dit hoofdstuk}{48}{section.5.4}}
\@setckpt{vertaalregels-compleetheid}{
\setcounter{page}{49}
\setcounter{equation}{0}
\setcounter{enumi}{0}
\setcounter{enumii}{0}
\setcounter{enumiii}{0}
\setcounter{enumiv}{0}
\setcounter{footnote}{0}
\setcounter{mpfootnote}{0}
\setcounter{@memmarkcntra}{0}
\setcounter{storedpagenumber}{1}
\setcounter{book}{0}
\setcounter{part}{0}
\setcounter{chapter}{5}
\setcounter{section}{4}
\setcounter{subsection}{0}
\setcounter{subsubsection}{0}
\setcounter{paragraph}{0}
\setcounter{subparagraph}{0}
\setcounter{@ppsavesec}{0}
\setcounter{@ppsaveapp}{0}
\setcounter{vslineno}{0}
\setcounter{poemline}{0}
\setcounter{modulo@vs}{0}
\setcounter{memfvsline}{0}
\setcounter{verse}{0}
\setcounter{chrsinstr}{0}
\setcounter{poem}{0}
\setcounter{newflo@tctr}{4}
\setcounter{@contsubnum}{0}
\setcounter{maxsecnumdepth}{2}
\setcounter{sidefootnote}{0}
\setcounter{pagenote}{0}
\setcounter{pagenoteshadow}{0}
\setcounter{memfbvline}{0}
\setcounter{bvlinectr}{0}
\setcounter{cp@cntr}{0}
\setcounter{ism@mctr}{0}
\setcounter{xsm@mctr}{0}
\setcounter{csm@mctr}{0}
\setcounter{ksm@mctr}{0}
\setcounter{xksm@mctr}{0}
\setcounter{cksm@mctr}{0}
\setcounter{msm@mctr}{0}
\setcounter{xmsm@mctr}{0}
\setcounter{cmsm@mctr}{0}
\setcounter{bsm@mctr}{0}
\setcounter{workm@mctr}{0}
\setcounter{sheetsequence}{59}
\setcounter{lastsheet}{116}
\setcounter{lastpage}{106}
\setcounter{figure}{1}
\setcounter{lofdepth}{1}
\setcounter{table}{0}
\setcounter{lotdepth}{1}
\setcounter{Item}{0}
\setcounter{Hfootnote}{0}
\setcounter{memhycontfloat}{0}
\setcounter{Hpagenote}{0}
\setcounter{bookmark@seq@number}{29}
\setcounter{AM@survey}{0}
\setcounter{@todonotes@numberoftodonotes}{0}
\setcounter{parentequation}{0}
\setcounter{float@type}{16}
\setcounter{algorithm}{0}
\setcounter{ALG@line}{8}
\setcounter{ALG@rem}{0}
\setcounter{ALG@nested}{0}
\setcounter{ALG@Lnr}{2}
\setcounter{ALG@blocknr}{10}
\setcounter{ALG@storecount}{0}
\setcounter{ALG@tmpcounter}{0}
\setcounter{ContinuedFloat}{0}
\setcounter{lstnumber}{1}
\setcounter{lips@count}{0}
\setcounter{section@level}{1}
\setcounter{lstlisting}{0}
}
